<mxfile host="app.diagrams.net" modified="2020-10-23T21:02:03.149Z" agent="5.0 (Windows NT 10.0; Win64; x64) AppleWebKit/537.36 (KHTML, like Gecko) Chrome/86.0.4240.111 Safari/537.36" etag="KoL8fMl9Kszf-TJcN1te" version="13.8.1" type="gitlab">
  <diagram id="mFsftAaPj9DqutnaKbGt" name="Page-1">
    <mxGraphModel dx="1768" dy="512" grid="1" gridSize="10" guides="1" tooltips="1" connect="1" arrows="1" fold="1" page="1" pageScale="1" pageWidth="850" pageHeight="1100" math="0" shadow="0">
      <root>
        <mxCell id="0" />
        <mxCell id="1" parent="0" />
        <mxCell id="KhcxwxLgxb86l6WHiWlS-38" value="" style="dashed=0;shape=rect;fillColor=#ffffff;strokeColor=none;" vertex="1" parent="1">
          <mxGeometry x="-140" y="60" width="900" height="600" as="geometry" />
        </mxCell>
        <mxCell id="KhcxwxLgxb86l6WHiWlS-124" value="" style="dashed=0;shape=rect;fillColor=#ffffff;strokeColor=none;" vertex="1" parent="1">
          <mxGeometry x="-140" y="160" width="350" height="290" as="geometry" />
        </mxCell>
        <mxCell id="KhcxwxLgxb86l6WHiWlS-125" value="" style="dashed=0;shape=rect;strokeColor=none;fillColor=#00BCD4;resizeWidth=1;" vertex="1" parent="KhcxwxLgxb86l6WHiWlS-124">
          <mxGeometry width="350" height="48" relative="1" as="geometry" />
        </mxCell>
        <mxCell id="KhcxwxLgxb86l6WHiWlS-126" value="ITEM ONE" style="text;fontSize=13;fontColor=#FFFFFF;verticalAlign=middle;align=center;resizeWidth=1;" vertex="1" parent="KhcxwxLgxb86l6WHiWlS-125">
          <mxGeometry y="1" width="80" height="48" relative="1" as="geometry">
            <mxPoint y="-48" as="offset" />
          </mxGeometry>
        </mxCell>
        <mxCell id="KhcxwxLgxb86l6WHiWlS-127" value="ITEM TWO" style="text;fontSize=13;fontColor=#FFFFFF;verticalAlign=middle;align=center;textOpacity=80;resizeWidth=1;" vertex="1" parent="KhcxwxLgxb86l6WHiWlS-125">
          <mxGeometry x="0.33" y="1" width="117.31843575418992" height="48" relative="1" as="geometry">
            <mxPoint y="-48" as="offset" />
          </mxGeometry>
        </mxCell>
        <mxCell id="KhcxwxLgxb86l6WHiWlS-128" value="ITEM THREE" style="text;fontSize=13;fontColor=#FFFFFF;verticalAlign=middle;align=center;textOpacity=80;resizeWidth=1;" vertex="1" parent="KhcxwxLgxb86l6WHiWlS-125">
          <mxGeometry x="0.67" y="1" width="116.34078212290503" height="48" relative="1" as="geometry">
            <mxPoint y="-48" as="offset" />
          </mxGeometry>
        </mxCell>
        <mxCell id="KhcxwxLgxb86l6WHiWlS-129" value="" style="dashed=0;shape=rect;strokeColor=none;fillColor=#F1FB8F;resizeWidth=1;" vertex="1" parent="KhcxwxLgxb86l6WHiWlS-125">
          <mxGeometry y="1" width="70" height="4" relative="1" as="geometry">
            <mxPoint y="-3" as="offset" />
          </mxGeometry>
        </mxCell>
      </root>
    </mxGraphModel>
  </diagram>
</mxfile>
